<?xml version="1.0" encoding="UTF-8" standalone="no"?>
<svg
   xmlns:dc="http://purl.org/dc/elements/1.1/"
   xmlns:cc="http://creativecommons.org/ns#"
   xmlns:rdf="http://www.w3.org/1999/02/22-rdf-syntax-ns#"
   xmlns:svg="http://www.w3.org/2000/svg"
   xmlns="http://www.w3.org/2000/svg"
   xmlns:sodipodi="http://sodipodi.sourceforge.net/DTD/sodipodi-0.dtd"
   xmlns:inkscape="http://www.inkscape.org/namespaces/inkscape"
   viewBox="0 -2054 2590 2086"
   version="1.1"
   id="svg15"
   sodipodi:docname="O-pen.svg"
   inkscape:version="1.0.2 (e86c8708, 2021-01-15)">
  <metadata
     id="metadata21">
    <rdf:RDF>
      <cc:Work
         rdf:about="">
        <dc:format>image/svg+xml</dc:format>
        <dc:type
           rdf:resource="http://purl.org/dc/dcmitype/StillImage" />
      </cc:Work>
    </rdf:RDF>
  </metadata>
  <defs
     id="defs19" />
  <sodipodi:namedview
     pagecolor="#ffffff"
     bordercolor="#666666"
     borderopacity="1"
     objecttolerance="10"
     gridtolerance="10"
     guidetolerance="10"
     inkscape:pageopacity="0"
     inkscape:pageshadow="2"
     inkscape:window-width="1359"
     inkscape:window-height="750"
     id="namedview17"
     showgrid="false"
     inkscape:zoom="0.24583938"
     inkscape:cx="1218.6218"
     inkscape:cy="964.06643"
     inkscape:window-x="0"
     inkscape:window-y="25"
     inkscape:window-maximized="0"
     inkscape:current-layer="svg15"
     inkscape:document-rotation="0" />
  <style
     id="style10">path { stroke:none;stroke-width:2.8;fill:grey ; } 
g.present &gt; path.first { fill:pink ; }
g.present &gt; path.line { stroke:#c88; }
g.present &gt; path.tick { stroke:pink; }
g.present &gt; path { stroke:none;stroke-width:2;fill:red; }
</style>
  <g
     class=""
     id="glyf15"
     transform="translate(0 0)"
     style="fill:#000000;stroke-width:0.01;stroke-miterlimit:4;stroke-dasharray:none">
    <path
       d="m 1389,32 c 1132,0 1201,-251 1201,-628 v -789 c 0,-465 -45,-669 -1135,-669 -918,0 -1215,104 -1215,669 v 809 c 0,408 94,608 1149,608 z m -32,-626 c -494,0 -517,-74 -517,-267 v -285 c 0,-240 101,-282 540,-282 422,0 602,16 602,203 v 316 c 0,262 -61,315 -625,315 z"
       class=""
       id="path12"
       style="fill:#000000;stroke-width:0.01;stroke-miterlimit:4;stroke-dasharray:none"
       sodipodi:nodetypes="ssssssssssssss" />
  </g>
  <path
     style="fill:none;stroke:#eeaaee;stroke-width:36;stroke-linecap:butt;stroke-linejoin:miter;stroke-miterlimit:4;stroke-dasharray:none;stroke-opacity:1"
     d="m 2271.7341,-706.00112 c 0,355.3688 -209.0144,410.77318 -856.7341,410.77318 -647.71967,0 -856.73408,-55.40438 -856.73408,-410.77318 0,-232.96633 0,-365.93268 0,-598.89898 0,-355.3688 209.01441,-410.7732 856.73408,-410.7732 647.7197,0 856.7341,55.4044 856.7341,410.7732 0,232.9663 0,365.93265 0,598.89898 z"
     id="path1167"
     sodipodi:nodetypes="czcczcc" />
  <path
     style="fill:#ffff00;fill-opacity:1;stroke:none;stroke-width:36"
     id="path1785"
     d="m 472.907,-1054.2922 c 9.35307,20.1922 20.18376,39.6425 29.99176,59.61 11.82346,22.0172 22.22147,44.6574 31.13068,67.9904 4.23309,11.3812 5.94693,23.4248 6.69027,35.4823 0.76246,15.2239 -4.96857,30.2272 -10.19742,44.3628 -7.66459,19.7802 -16.81603,38.8648 -26.91682,57.49 -8.90192,16.1194 -19.6795,31.0883 -29.7329,46.4952 -12.16567,19.2529 -23.21213,39.1614 -33.51684,59.4615 -9.36762,17.975 -15.99214,36.8916 -19.69103,56.7865 -4.40749,36.9385 10.34421,62.8812 32.89885,89.6907 10.3962,11.537 19.76787,19.4292 30.95223,27.7431 3.88424,8.6528 -10.15781,-11.0726 -8.91635,-7.4124 0.7286,2.1481 2.70211,3.6442 4.04533,5.472 3.79406,5.163 7.54633,10.356 11.29252,15.5537 17.08551,26.0594 44.68239,36.9153 71.55894,49.5858 19.4031,8.8832 38.89069,18.2195 55.28967,32.0521 6.69212,7.2372 14.71305,14.3741 18.52159,23.7091 7.2869,13.3628 13.34344,27.4247 19.29069,41.4356 6.35738,14.1954 11.90534,28.9355 20.25114,42.1446 2.71826,4.3022 5.79947,8.3641 8.6992,12.5462 15.22352,20.6823 33.70254,38.1421 56.91545,49.5828 5.52045,2.7208 11.44754,4.5239 17.17131,6.7859 17.50536,5.2697 35.56183,7.4717 53.71321,8.8085 7.67569,0.5653 22.50153,1.3852 29.90027,0.7719 8.6468,-0.7166 17.20063,-2.2938 25.80095,-3.4407 31.54826,-6.5674 62.12816,-16.8034 91.95195,-28.8735 22.86876,-9.4805 44.54265,-21.5111 67.34885,-31.107 2.8298,-1.0948 5.5571,-2.505 8.4895,-3.2842 1.4149,-0.376 2.9341,0.017 4.3899,-0.1382 4.0347,-0.4295 8.0291,-1.1968 12.0652,-1.6133 18.2219,-1.8806 36.4607,-2.5491 54.7626,-2.8198 47.1115,1.7548 93.7892,8.8407 139.9883,17.8783 62.5268,14.1886 124.0454,32.5797 185.4976,50.7945 51.0541,14.9326 102.2663,29.1918 154.3791,39.9219 30.39,5.9765 61.1678,9.6424 92.0601,11.6213 43.4017,1.7581 69.206,-16.4865 102.0319,-41.7241 34.7871,-27.2985 64.2891,-60.2595 93.5979,-93.1438 7.3254,-8.1843 12.4031,-14.1055 19.9764,-21.7323 3.1967,-3.2194 6.2463,-6.5562 10.2277,-8.7832 2.3053,-1.2894 1.9584,-1.1896 2.0551,0.3811 23.7811,-3.7762 47.896,-4.5774 71.9283,-5.264 35.8896,-0.6191 71.788,-0.4068 107.6812,-0.3242 22.8026,0.059 45.6052,0.1143 68.4079,0.1467 29.5085,1.077 54.8262,-9.9601 80.2122,-23.5829 29.3424,-17.4729 57.1503,-37.9254 80.7321,-62.7664 5.7709,-6.0792 11.0133,-12.639 16.5199,-18.9585 27.3208,-34.4951 42.0911,-76.0711 46.3178,-119.6378 0.697,-7.1846 0.776,-14.4157 1.1641,-21.6236 -0.9049,-9.6756 -0.8485,-19.4897 -2.7146,-29.0266 -7.6729,-39.213 -27.758,-75.7438 -51.6887,-107.2951 -5.5842,-7.3625 -11.7574,-14.2592 -17.636,-21.3888 -21.5459,-26.5462 -50.6015,-47.0385 -68.4873,-76.5017 -3.3611,-9.3253 -4.2352,-18.6684 -0.5004,-28.0242 10.0774,-23.8555 28.3079,-43.3192 45.2298,-62.5139 31.5383,-33.9741 62.0426,-68.7894 90.35,-105.4997 21.7165,-29.5995 41.7236,-60.7661 55.8303,-94.7913 2.9744,-7.1743 6.2953,-14.3086 7.9799,-21.8901 2.5686,-11.5592 3.1387,-23.4733 4.7081,-35.21 -2.8837,-13.697 -4.0289,-27.879 -8.6511,-41.0911 -13.674,-39.0861 -55.068,-72.5068 -86.9296,-97.2391 -24.8105,-18.2339 -50.6645,-34.9739 -75.4713,-53.2086 -7.3045,-5.8005 -14.9137,-11.9549 -20.1141,-19.8676 -2.8929,-4.4017 -5.232,-11.8621 -6.8234,-16.9208 1.5339,-14.6813 4.3726,-29.3267 7.3717,-43.8341 7.1901,-30.7497 14.3495,-61.4847 19.2314,-92.6928 4.0812,-26.4925 4.9255,-53.3926 0.3081,-79.8827 -1.0633,-6.1 -1.9757,-12.3016 -4.0988,-18.1182 -3.5762,-9.7974 -8.6113,-18.999 -12.9169,-28.4985 -5.2336,-6.9389 -9.8079,-14.4283 -15.7008,-20.8167 -22.5313,-24.426 -52.6265,-41.4884 -82.3241,-55.5738 -25.8782,-11.3815 -53.9681,-15.9764 -82.0279,-11.5216 -5.9257,0.9408 -11.669,2.798 -17.5035,4.197 -34.4163,10.8408 -55.2044,30.1653 -76.1717,58.5278 -8.9148,9.7949 -16.0807,33.0521 -27.2445,39.9944 0.5954,-1.1733 2.1468,-2.2545 1.7862,-3.5198 -0.2732,-0.9585 -1.9454,-0.5582 -2.9417,-0.535 -3.2236,0.075 -6.4142,0.7533 -9.6378,0.8283 -5.2678,0.1226 -10.5425,0.013 -15.8058,-0.2361 -23.0309,-1.0885 -21.8923,-1.5521 -45.3256,-5.0935 -28.3668,-5.89 -56.5014,-13.7025 -82.5337,-26.6334 -12.2988,-6.1092 -16.9824,-9.3509 -28.5876,-16.4971 -30.5245,-21.0212 -58.6564,-45.2324 -87.9964,-67.8333 -17.822,-13.8003 -35.4986,-27.681 -55.4534,-38.2778 -24.3666,-12.8739 -48.16,-13.4699 -74.8713,-10.5523 -25.8268,4.4217 -51.0691,14.4112 -72.5557,29.5913 -5.6094,3.9631 -10.8473,8.4275 -16.2709,12.6412 -22.6813,19.4315 -38.2239,44.9674 -55.5712,68.8486 16.8712,-0.975 -14.5048,11.2372 -11.1921,8.0803 0.738,-0.7032 1.7607,-1.0278 2.641,-1.5417 2.708,-0.7585 5.6338,-0.9686 8.124,-2.2754 0.5886,-0.3088 -1.033,-0.8703 -1.6478,-1.123 -2.5751,-1.0587 -5.264,-1.8179 -7.8727,-2.7909 -16.2809,-6.0726 -31.2158,-13.3358 -46.4116,-21.7539 -27.6034,-15.7499 -53.059,-34.8514 -79.6877,-52.1107 -21.8386,-14.1547 -25.9472,-16.1025 -48.3705,-28.9428 -21.8314,-11.092 -44.2119,-21.4354 -67.4335,-29.3237 -11.6903,-3.9711 -28.0679,-8.8161 -40.3265,-9.0376 -10.4113,-0.1882 -20.7527,1.7441 -31.129,2.6162 -9.2131,3.7193 -19.152,5.9926 -27.6393,11.1578 -36.2529,22.0629 -54.228,62.536 -71.83956,99.0586 -11.21517,23.2644 -21.52157,46.9542 -33.70356,69.7442 -6.5636,12.2792 -3.77169,8.6317 -9.6169,15.1905 -1.18042,-2.4352 11.06439,-13.5252 10.87952,-13.8457 -0.62775,-1.0881 -2.35166,-0.9186 -3.58245,-1.1701 -3.94624,-0.8067 -7.95946,-1.2498 -11.91716,-1.9981 -6.0663,-1.147 -12.10042,-2.4582 -18.15064,-3.6873 -38.48692,-8.7157 -75.08693,-23.612 -111.75833,-37.847 -29.75663,-12.4925 -59.98511,-23.735 -91.00138,-32.6692 -28.7088,-7.4135 -57.76106,-4.0907 -83.1509,12.0498 -15.77415,10.0278 -21.59079,18.794 -33.1463,32.4507 -22.29627,30.1169 -38.96876,63.7642 -52.71272,98.485 -7.06643,19.0172 -13.78474,38.4308 -17.34063,58.4732 -0.93806,5.2873 -2.0639,10.5892 -2.2121,15.957 -0.24395,8.8354 0.69333,17.664 1.04,26.496 8.95538,50.3796 38.88898,77.1201 75.04933,109.0404 8.05674,7.2898 16.78735,13.9701 24.01919,22.138 0.90303,1.0199 1.7381,2.1029 2.50771,3.2269 0.30777,0.4495 1.00247,1.9316 0.70972,1.4721 -2.4321,-3.8167 -4.75544,-7.7018 -7.13315,-11.5527 -3.90501,-16.0567 -5.26798,-14.8094 -3.39183,-30.0512 0.35654,-2.8966 3.90724,-6.2695 2.04177,-8.5139 -1.49603,-1.7999 -3.43861,3.1761 -5.1645,4.7569 -14.82564,13.5796 -7.35011,7.0883 -24.78493,21.0765 -32.68951,24.4985 -68.03642,45.0526 -102.06117,67.5592 -21.8907,15.2056 -44.17991,31.9899 -58.21934,55.2112 -3.21055,5.3102 -5.68517,11.0319 -8.52776,16.5479 -2.07344,7.4816 -5.02451,14.7738 -6.22031,22.4447 -5.65818,36.2967 8.99248,72.5941 21.67031,105.7683 8.65119,20.7136 17.84815,41.2789 29.22493,60.6542 5.9911,9.2245 12.90087,18.0901 21.10287,25.4859 0.98523,0.8884 -1.8696,-1.8826 -2.80439,-2.824 -20.21712,-33.2009 0.73039,3.9862 -5.16614,-6.2649 33.55492,97.9591 172.08995,50.5053 138.53502,-47.4538 v 0 c -5.0897,-14.3162 -11.55801,-27.486 -20.66418,-39.7771 -1.22303,-1.3762 -13.69261,-16.3702 -5.99828,-5.4392 0.50845,1.7817 0.2988,0.9068 -1.70516,-2.977 -3.86111,-7.4831 -7.51668,-15.0787 -10.96238,-22.7618 -1.67646,-3.7381 -3.27208,-7.5119 -4.90812,-11.2679 -3.56518,-9.1605 -6.08165,-15.2539 -9.13732,-24.4666 -1.0099,-3.0447 -1.54584,-6.252 -2.77664,-9.2143 -2.02499,-4.8739 -3.46352,25.6316 -6.43185,17.6965 -1.55332,2.3283 -2.51455,5.6125 -5.10843,6.6639 -0.29322,0.1188 0.0819,-0.6604 0.28026,-0.9069 0.90228,-1.1211 1.90468,-2.166 2.97076,-3.1328 5.67464,-5.1458 9.14695,-7.232 15.83794,-11.9857 38.01081,-25.3517 77.87047,-48.0283 113.89707,-76.3042 29.23727,-24.2883 61.31027,-50.1407 74.94326,-87.1922 9.76702,-26.5446 5.38442,-34.4172 1.83041,-61.4608 -3.97373,-8.4371 -7.3908,-17.1596 -11.92119,-25.3114 -2.32009,-4.1746 -5.54031,-7.7884 -8.53979,-11.5051 -12.07757,-14.9654 -26.5828,-27.6785 -41.10393,-40.1829 -14.91551,-13.13 -6.2198,-5.4081 -19.46408,-17.2983 -3.7536,-3.3699 -6.00885,-6.2874 -6.62167,-4.4384 -0.66538,2.0075 0.91431,4.3516 -0.26591,6.3393 -0.38251,2.2816 -0.55609,4.6083 -1.14754,6.8449 -0.19255,0.7281 -0.17318,-1.5131 -0.0653,-2.2584 0.33311,-2.302 0.85159,-4.575 1.38185,-6.8397 1.15221,-4.921 3.38582,-12.9304 4.97216,-17.623 1.32299,-3.9136 2.84057,-7.7587 4.26086,-11.638 8.05705,-21.1821 18.19122,-41.5332 30.78864,-60.4116 2.0526,-4.8116 1.04674,-1.2563 -5.47734,1.5093 -9.76989,4.1414 -14.2536,5.2516 -24.94244,5.1878 -6.16836,-0.037 -5.5944,0.2311 -8.07603,-1.6963 26.76062,7.5859 52.62458,17.7478 78.30006,28.3966 44.89548,17.4274 89.8712,35.1952 137.16584,45.1498 29.78815,5.5011 59.54651,11.3795 89.98914,6.6259 20.64451,-3.2237 39.72291,-10.3015 56.73551,-22.7082 8.4621,-6.1711 15.1149,-14.5017 22.6724,-21.7525 4.0806,-5.9811 8.4203,-11.7934 12.2417,-17.9433 17.4696,-28.1143 29.1052,-59.4949 44.054,-88.9067 7.5186,-15.7583 7.1585,-15.4017 14.6074,-29.6742 1.2503,-2.3957 2.6158,-4.7304 3.8544,-7.1321 0.4312,-0.8363 2.0356,-2.9017 1.1526,-2.5767 -41.0429,15.1047 21.6608,-2.2109 -23.808,9.4696 -4.6152,-0.2646 -9.2616,-0.1969 -13.8456,-0.7938 -0.741,-0.097 -2.6014,-1.3434 -1.86,-1.251 5.2747,0.6577 17.7174,5.6624 20.9326,6.9213 16.4374,6.436 16.3246,6.7172 32.7887,14.4158 16.89,9.5765 22.5558,12.464 38.9785,23.1076 30.6958,19.8942 60.0548,41.9127 92.136,59.6404 8.8897,4.708 17.6154,9.7394 26.6691,14.1239 28.4881,13.7962 66.5623,28.6996 98.5781,29.0718 9.4197,0.1095 18.7808,-1.5026 28.1712,-2.2539 6.1356,-1.8523 12.406,-3.3055 18.4067,-5.5568 29.4433,-11.046 54.409,-31.8799 72.7195,-57.1528 10.0312,-13.9467 19.2921,-28.4636 30.2034,-41.7566 2.014,-4.1193 10.0558,-6.9625 13.8935,-9.7864 1.1196,-0.2929 4.5258,-0.4172 3.4019,-0.6933 -5.2469,-1.2888 -10.6384,-1.0308 -15.1656,-4.4545 9.4068,4.8565 23.6857,16.956 34.3824,24.766 33.6798,25.8742 65.7496,53.9511 101.4792,77.0567 18.3913,11.001 25.4395,15.7975 45.1458,25.125 38.5046,18.2253 79.6169,29.996 121.43,37.7346 11.8486,1.5789 23.6416,3.6538 35.5458,4.7368 44.6331,4.0605 93.1914,2.7713 133.6568,-19.0243 9.2705,-4.9933 17.3159,-11.9858 25.9739,-17.9787 4.4672,-4.6467 9.1631,-9.0839 13.4016,-13.9401 11.8956,-13.6293 20.8085,-29.3767 29.9299,-44.8846 5.0311,-7.987 1.0901,-1.9086 -3.3983,-2.8572 -1.2616,-0.1142 -4.9357,-0.4216 -5.5832,-0.6563 -0.5254,-0.1904 2.0054,0.1801 1.6565,-0.2564 -1.1243,-1.4069 -6.4818,-2.3672 2.9496,0.2873 7.8024,3.2289 14.7749,7.4767 21.9804,11.8794 2.8112,1.7177 6.0471,5.9551 8.8974,4.303 0.4485,-0.2599 0.2481,-1.0066 0.3722,-1.51 -0.4696,-2.6262 -1.378,-5.2109 -1.4087,-7.8786 -0.017,-1.4364 1.0076,2.6962 1.365,4.0875 3.129,12.1834 1.6405,24.6088 -0.1495,36.8986 -4.2017,28.8681 -11.7694,57.0954 -17.9685,85.5777 -8.4968,42.387 -14.8877,83.9598 -0.3401,126.0606 2.674,6.5122 5.0222,13.1679 8.0219,19.5366 15.5756,33.0701 39.5604,60.6482 68.8506,82.2957 23.8909,17.456 48.5169,33.8478 72.5927,51.0449 9.5701,7.3095 13.3822,9.9886 22.4093,17.7783 3.0767,2.655 5.9981,5.485 9.0279,8.1934 1.7177,1.5355 3.0706,3.6923 5.2139,4.5378 4.6347,1.8281 -7.826,-43.5416 2.0641,-14.8036 1.1357,-2.2121 3.2752,-9.1194 3.4073,-6.6363 0.1805,3.394 -8.7491,22.785 -9.1615,23.6288 -9.0423,18.499 -20.4788,35.685 -32.5701,52.3027 -26.2581,34.2748 -55.0377,66.3844 -84.2908,98.1287 -13.0855,14.9482 -23.4131,26.1841 -35.3812,42.3681 -19.8649,26.8623 -35.9481,57.0902 -43.7269,89.6887 -1.3005,8.3085 -3.1198,16.5523 -3.9014,24.9256 -3.6534,39.1412 6.9139,77.1712 26.1881,110.9872 4.1762,6.1143 8.101,12.4081 12.5286,18.3429 19.457,26.0804 44.18,47.4447 65.9138,71.4913 15.0897,17.4353 29.058,36.2226 37.8905,57.6698 -0.082,12.7594 -1.3977,24.9578 -5.1241,37.1745 -0.662,2.1702 -1.0719,4.4505 -2.0909,6.4777 -1.5392,3.0622 -3.6827,5.7811 -5.5241,8.6717 -15.6977,19.485 -34.8261,35.4684 -56.3223,48.2962 -1.9659,1.1549 -3.9487,2.2816 -5.8978,3.4645 -0.6684,0.4057 -1.6898,0.5634 -1.9524,1.2998 -0.1658,0.4649 1.6277,-0.4481 1.4806,0.023 -0.171,0.5478 -2.2082,0.3922 -1.6457,0.5056 1.5674,0.3159 6.3874,-0.016 4.7951,0.1292 -2.0376,0.1859 -4.0922,0 -6.1383,-0.01 -22.7598,-0.032 -45.5196,-0.088 -68.2794,-0.1465 -37.4423,-0.086 -74.8904,-0.3111 -112.3282,0.3873 -41.6462,1.2573 -84.0257,2.4774 -123.7553,16.3882 -7.3347,3.4204 -14.906,6.3735 -22.0041,10.2612 -25.3486,13.8837 -44.2707,36.7295 -63.4409,57.6944 -23.4556,26.3216 -46.6974,53.0789 -74.3792,75.138 -3.1707,2.5429 -6.2856,5.1571 -9.5123,7.6286 -2.0911,1.6018 -4.8927,2.4513 -6.4349,4.5867 -0.7088,0.9813 2.3821,-0.4336 3.5768,-0.6293 1.928,-0.3158 8.0963,-1.5245 9.6077,-0.5779 -24.1006,-1.4655 -48.1048,-4.3627 -71.8232,-8.9263 -48.0259,-9.7892 -95.1232,-23.2377 -142.1831,-36.8715 -65.9568,-19.5324 -131.9831,-39.2816 -199.1777,-54.1412 -56.2827,-10.863 -113.184,-19.4063 -170.6043,-20.5392 -45.1899,0.9556 -91.9565,2.2165 -134.36537,19.5308 -22.09773,9.4792 -43.41232,20.5481 -65.39104,30.2903 -19.75919,8.2028 -40.10517,14.8609 -60.87249,20.0236 -9.90563,4.6212 -24.31214,-0.143 -34.99269,-0.2901 -0.34319,0 -0.51929,0.4489 -0.77893,0.6734 0.40795,2.348 -0.23508,-0.5183 3.51144,3.7557 0.23259,0.2654 -0.64945,-0.3205 -1.00162,-0.3425 -0.14822,-0.01 -0.25809,0.3614 -0.36384,0.2571 -1.199,-1.1822 -5.78665,-6.6906 -7.10752,-8.2616 -5.69501,-4.3848 -8.76688,-19.7884 -12.73816,-26.1229 -7.76407,-18.0894 -15.66391,-36.206 -25.10552,-53.4888 -14.61972,-26.0701 -33.17355,-49.429 -56.18372,-68.704 -4.942,-3.8409 -9.7438,-7.8694 -14.826,-11.5228 -21.5041,-15.4587 -45.39859,-27.321 -69.33325,-38.463 -4.34706,-2.0399 -8.67291,-4.1256 -13.04118,-6.1196 -2.54234,-1.1606 -5.06538,-2.3796 -7.68869,-3.3432 -0.29492,-0.1083 -1.1295,-0.06 -0.92538,0.1791 2.08678,2.4417 4.67423,4.4132 6.86085,6.7659 0.69063,0.7431 2.60456,3.0322 1.7449,2.4935 -0.94841,-0.5942 -1.35442,-1.7821 -2.03163,-2.6731 -11.82235,-16.3994 -23.02603,-33.8074 -39.09056,-46.4188 2.3559,2.4213 4.56513,3.8164 -5.21382,-4.333 -0.53402,-0.445 1.79522,2.0855 1.22527,1.6875 -0.75092,-0.5243 -1.27452,-1.3156 -1.91179,-1.9734 -0.55708,-0.6034 -1.11416,-1.2068 -1.67125,-1.8102 -0.18206,-0.083 -0.40938,-0.1026 -0.54617,-0.2485 -0.48714,-0.5197 -1.46101,-2.3969 -1.2863,-1.7064 0.7833,3.0959 2.53331,5.9153 3.14425,9.0497 2.68411,13.771 2.07942,13.3961 0.71893,24.4774 -1.99718,3.8467 5.93075,-15.7896 5.89525,-14.7652 7.88067,-15.6053 16.34598,-30.8915 25.6005,-45.7297 12.1497,-18.718 25.2181,-36.8869 35.75063,-56.6047 13.80247,-25.4724 26.16293,-51.6892 36.36917,-78.8303 11.38066,-33.3858 21.16561,-68.0415 18.03657,-103.7161 -2.11565,-26.253 -6.50471,-52.3182 -15.99853,-77.0242 -10.58822,-27.502 -22.62632,-54.3622 -36.54266,-80.3601 -9.98914,-20.1588 -20.82374,-39.8807 -30.32451,-60.2798 -46.3075,-92.6117 -177.28481,-27.123 -130.97734,65.4919 z" />
</svg>
