<?xml version="1.0" encoding="UTF-8" standalone="no"?>
<svg
   xmlns:dc="http://purl.org/dc/elements/1.1/"
   xmlns:cc="http://creativecommons.org/ns#"
   xmlns:rdf="http://www.w3.org/1999/02/22-rdf-syntax-ns#"
   xmlns:svg="http://www.w3.org/2000/svg"
   xmlns="http://www.w3.org/2000/svg"
   xmlns:sodipodi="http://sodipodi.sourceforge.net/DTD/sodipodi-0.dtd"
   xmlns:inkscape="http://www.inkscape.org/namespaces/inkscape"
   viewBox="0 -1369 4893.8823 1374"
   version="1.1"
   id="svg28"
   sodipodi:docname="omega-v-microgramma.svg"
   inkscape:version="1.0.2 (e86c8708, 2021-01-15)"
   width="4893.8823"
   height="1374">
  <metadata
     id="metadata34">
    <rdf:RDF>
      <cc:Work
         rdf:about="">
        <dc:format>image/svg+xml</dc:format>
        <dc:type
           rdf:resource="http://purl.org/dc/dcmitype/StillImage" />
        <dc:title></dc:title>
      </cc:Work>
    </rdf:RDF>
  </metadata>
  <defs
     id="defs32" />
  <sodipodi:namedview
     pagecolor="#ffffff"
     bordercolor="#666666"
     borderopacity="1"
     objecttolerance="10"
     gridtolerance="10"
     guidetolerance="10"
     inkscape:pageopacity="0"
     inkscape:pageshadow="2"
     inkscape:window-width="1440"
     inkscape:window-height="769"
     id="namedview30"
     showgrid="false"
     inkscape:zoom="0.10699369"
     inkscape:cx="2342.9861"
     inkscape:cy="342.68483"
     inkscape:window-x="0"
     inkscape:window-y="25"
     inkscape:window-maximized="0"
     inkscape:current-layer="svg28"
     inkscape:document-rotation="0"
     fit-margin-top="0"
     fit-margin-left="0"
     fit-margin-right="0"
     fit-margin-bottom="0" />
  <style
     id="style23">path { stroke:none;stroke-width:2.8;fill:grey ; } 
g.present &gt; path.first { fill:pink ; }
g.present &gt; path.line { stroke:#c88; }
g.present &gt; path.tick { stroke:pink; }
g.present &gt; path { stroke:none;stroke-width:2;fill:red; }
</style>
  <g
     id="g846"
     transform="translate(1677.6688)">
    <path
       d="m 2425.1424,4.9999925 c 745.6222,0 791.0709,-165.3279025 791.0709,-413.6490825 v -519.69607 c 0,-306.28474 -29.6404,-440.65484 -747.5982,-440.65484 -604.6654,0 -800.2924,68.5024 -800.2924,440.65484 v 532.8696 c 0,268.74017 61.9156,400.4755525 756.8197,400.4755525 z M 2404.0647,-407.33174 c -325.3863,0 -340.5359,-48.74209 -340.5359,-175.86673 v -187.72291 c 0,-158.08246 66.5264,-185.74689 355.6855,-185.74689 277.9617,0 396.5235,10.53883 396.5235,133.71141 v 208.1419 c 0,172.57334 -40.1793,207.48322 -411.6731,207.48322 z"
       class=""
       id="path12"
       style="fill:#000000;fill-opacity:1" />
    <path
       d="m 2486.1959,-1369 q 366.8202,0 507.2082,36 102.3474,27 156.6912,120 66.1182,116 66.1182,537 0,255 -24.4547,403 -33.512,204 -203.789,245 -138.5766,33 -412.1068,33 -158.5025,0 -339.1955,-5 -180.6929,-5 -235.0367,-10 -92.3844,-10 -145.8224,-33 -53.438,-23 -95.1015,-72 -48.9094,-57 -65.2125,-134 -27.1719,-127 -27.1719,-432 0,-332 40.7578,-469 48.9094,-162 223.7151,-191 163.937,-28 553.4005,-28 z"
       id="path25"
       style="fill:#eeaaee;fill-opacity:0.709804" />
  </g>
  <path
     d="m 756.81972,4.9999925 c 745.62218,0 791.07088,-165.3279025 791.07088,-413.6490825 V -928.34516 C 1547.8906,-1234.6299 1518.2502,-1369 800.2924,-1369 195.627,-1369 0,-1300.4976 0,-928.34516 v 532.8696 C 0,-126.73539 61.9156,4.9999925 756.81972,4.9999925 Z M 735.74206,-407.33174 c -325.38636,0 -340.53596,-48.74209 -340.53596,-175.86673 v -187.72291 c 0,-158.08246 66.5264,-185.74689 355.68553,-185.74689 277.96167,0 396.52347,10.53883 396.52347,133.71141 v 208.1419 c 0,172.57334 -40.1793,207.48322 -411.67304,207.48322 z"
     class=""
     id="path17"
     style="fill:#000000;fill-opacity:1" />
  <path
     d="m 2490.8691,-1369 q 366.8202,0 507.2082,36 102.3474,27 156.6912,120 66.1182,116 66.1182,537 0,255 -24.4547,403 Q 3162.92,-68.999999 2992.643,-27.999999 2854.0664,5 2580.5362,5 2422.0337,5 2241.3407,0 2060.6478,-4.999999 2006.304,-9.999999 q -92.3843,-10 -145.8224,-33 -53.438,-23 -95.1015,-72.000001 -48.9094,-57 -65.2125,-134 -27.1719,-127 -27.1719,-432 0,-332 40.7578,-469 48.9094,-162 223.7151,-191 163.937,-28 553.4005,-28 z"
     id="path19"
     style="fill:#eeaaee;fill-opacity:0.709804" />
</svg>
