%!PS-Adobe-3.0 EPSF-3.0
%%Creator: cairo 1.16.0 (https://cairographics.org)
%%CreationDate: Thu Jun  9 14:31:35 2022
%%Pages: 1
%%DocumentData: Clean7Bit
%%LanguageLevel: 2
%%BoundingBox: 0 485 1763 6750
%%EndComments
%%BeginProlog
50 dict begin
/q { gsave } bind def
/Q { grestore } bind def
/cm { 6 array astore concat } bind def
/w { setlinewidth } bind def
/J { setlinecap } bind def
/j { setlinejoin } bind def
/M { setmiterlimit } bind def
/d { setdash } bind def
/m { moveto } bind def
/l { lineto } bind def
/c { curveto } bind def
/h { closepath } bind def
/re { exch dup neg 3 1 roll 5 3 roll moveto 0 rlineto
      0 exch rlineto 0 rlineto closepath } bind def
/S { stroke } bind def
/f { fill } bind def
/f* { eofill } bind def
/n { newpath } bind def
/W { clip } bind def
/W* { eoclip } bind def
/BT { } bind def
/ET { } bind def
/BDC { mark 3 1 roll /BDC pdfmark } bind def
/EMC { mark /EMC pdfmark } bind def
/cairo_store_point { /cairo_point_y exch def /cairo_point_x exch def } def
/Tj { show currentpoint cairo_store_point } bind def
/TJ {
  {
    dup
    type /stringtype eq
    { show } { -0.001 mul 0 cairo_font_matrix dtransform rmoveto } ifelse
  } forall
  currentpoint cairo_store_point
} bind def
/cairo_selectfont { cairo_font_matrix aload pop pop pop 0 0 6 array astore
    cairo_font exch selectfont cairo_point_x cairo_point_y moveto } bind def
/Tf { pop /cairo_font exch def /cairo_font_matrix where
      { pop cairo_selectfont } if } bind def
/Td { matrix translate cairo_font_matrix matrix concatmatrix dup
      /cairo_font_matrix exch def dup 4 get exch 5 get cairo_store_point
      /cairo_font where { pop cairo_selectfont } if } bind def
/Tm { 2 copy 8 2 roll 6 array astore /cairo_font_matrix exch def
      cairo_store_point /cairo_font where { pop cairo_selectfont } if } bind def
/g { setgray } bind def
/rg { setrgbcolor } bind def
/d1 { setcachedevice } bind def
/cairo_data_source {
  CairoDataIndex CairoData length lt
    { CairoData CairoDataIndex get /CairoDataIndex CairoDataIndex 1 add def }
    { () } ifelse
} def
/cairo_flush_ascii85_file { cairo_ascii85_file status { cairo_ascii85_file flushfile } if } def
/cairo_image { image cairo_flush_ascii85_file } def
/cairo_imagemask { imagemask cairo_flush_ascii85_file } def
%%EndProlog
%%BeginSetup
%%EndSetup
%%Page: 1 1
%%BeginPageSetup
%%PageBoundingBox: 0 485 1763 6750
%%EndPageSetup
q 0 485 1763 6265 rectclip
1 0 0 -1 0 6750 cm q
0 g
1605 3238.246 m 1605 3170.746 1552.5 3148.246 1395 3148.246 c 1212 3148.246
 1150.5 3170.746 1150.5 3238.246 c 1150.5 3984.496 l 1150.5 4185.496 1092.75
 4220.746 767.25 4220.746 c 513.75 4220.746 450 4180.996 450 4020.496 c 
450 3238.246 l 450 3170.746 398.25 3148.246 242.25 3148.246 c 60.75 3148.246
 0 3170.746 0 3238.246 c 0 4234.246 l 0 4598.746 192 4690.246 786 4690.246
 c 1404 4690.246 1605 4595.746 1605 4219.246 c h
1605 3238.246 m f
1762.5 90 m 1762.5 22.5 1710 0 1551.75 0 c 1368 0 1306.5 22.5 1306.5 90
 c 1306.5 836.25 l 1306.5 1032.75 1260.75 1072.5 837.75 1072.5 c 467.25 
1072.5 450 1017 450 872.25 c 450 90 l 450 22.5 398.25 0 242.25 0 c 60.75
 0 0 22.5 0 90 c 0 1086 l 0 1392 70.5 1542 861.75 1542 c 1710.75 1542 1762.5
 1353.75 1762.5 1071 c h
1762.5 90 m f
1635 1664.121 m 1635 1596.621 1582.5 1574.121 1425 1574.121 c 1242 1574.121
 1180.5 1596.621 1180.5 1664.121 c 1180.5 2410.371 l 1180.5 2611.371 1120.5
 2646.621 780 2646.621 c 516.75 2646.621 450 2606.871 450 2446.371 c 450
 1664.121 l 450 1596.621 398.25 1574.121 242.25 1574.121 c 60.75 1574.121
 0 1596.621 0 1664.121 c 0 2660.121 l 0 3024.621 206.25 3116.121 795 3116.121
 c 1418.25 3116.121 1635 3021.621 1635 2645.121 c h
1635 1664.121 m f
1515 4812.367 m 1515 4744.867 1462.5 4722.367 1305 4722.367 c 1122 4722.367
 1060.5 4744.867 1060.5 4812.367 c 1060.5 5558.617 l 1060.5 5759.617 1010.25
 5794.867 726.75 5794.867 c 505.5 5794.867 450 5755.117 450 5594.617 c 450
 4812.367 l 450 4744.867 398.25 4722.367 242.25 4722.367 c 60.75 4722.367
 0 4744.867 0 4812.367 c 0 5808.367 l 0 6172.867 148.5 6264.367 742.5 6264.367
 c 1360.5 6264.367 1515 6169.867 1515 5793.367 c h
1515 4812.367 m f
Q Q
showpage
%%Trailer
end
%%EOF
